﻿<?xml version="1.0" encoding="utf-8"?>
<svg version="1.1" xmlns:xlink="http://www.w3.org/1999/xlink" width="423px" height="10px" preserveAspectRatio="xMinYMid meet" viewBox="652 216  423 8" xmlns="http://www.w3.org/2000/svg">
  <path d="M 657 177  L 657 215  A 5 5 0 0 0 662 220 L 1065 220  A 5 5 0 0 1 1070 225 L 1070 274  " stroke-width="2" stroke="#0099cc" fill="none" />
</svg>