﻿<?xml version="1.0" encoding="utf-8"?>
<svg version="1.1" xmlns:xlink="http://www.w3.org/1999/xlink" width="10px" height="59px" preserveAspectRatio="xMidYMin meet" viewBox="375 215  8 59" xmlns="http://www.w3.org/2000/svg">
  <path d="M 657 177  L 657 215  A 5 5 0 0 1 652 220 L 384 220  A 5 5 0 0 0 379 225 L 379 274  " stroke-width="2" stroke="#0099cc" fill="none" />
</svg>