﻿<?xml version="1.0" encoding="utf-8"?>
<svg version="1.1" xmlns:xlink="http://www.w3.org/1999/xlink" width="10px" height="21px" preserveAspectRatio="xMidYMin meet" viewBox="909 340  8 21" xmlns="http://www.w3.org/2000/svg">
  <path d="M 940 334  L 940 340  A 5 5 0 0 1 935 345 L 918 345  A 5 5 0 0 0 913 350 L 913 361  " stroke-width="2" stroke="#0099cc" fill="none" />
</svg>