﻿<?xml version="1.0" encoding="utf-8"?>
<svg version="1.1" xmlns:xlink="http://www.w3.org/1999/xlink" width="320px" height="180px" xmlns="http://www.w3.org/2000/svg">
  <defs>
    <mask fill="white" id="clip82">
      <path d="M 141.71728515625 81  L 180.28271484375 81  L 180.28271484375 100  L 141.71728515625 100  Z M 0 0  L 320 0  L 320 180  L 0 180  Z " fill-rule="evenodd" />
    </mask>
  </defs>
  <g>
    <path d="M 0.5 0.5  L 319.5 0.5  L 319.5 179.5  L 0.5 179.5  L 0.5 0.5  Z " fill-rule="nonzero" fill="#f2f2f2" stroke="none" />
    <path d="M 0.5 0.5  L 319.5 0.5  L 319.5 179.5  L 0.5 179.5  L 0.5 0.5  Z " stroke-width="1" stroke="#797979" fill="none" />
    <path d="M 0.774733810777377 0.435787768562275  L 319.225266189223 179.564212231438  M 319.225266189223 0.435787768562275  L 0.774733810777377 179.564212231438  " stroke-width="1" stroke="#797979" fill="none" mask="url(#clip82)" />
  </g>
</svg>