﻿<?xml version="1.0" encoding="utf-8"?>
<svg version="1.1" xmlns:xlink="http://www.w3.org/1999/xlink" width="50px" height="27px" xmlns="http://www.w3.org/2000/svg">
  <g transform="matrix(1 0 0 1 -392 -183 )">
    <path d="M 49.072265625 0.890625000000001  C 49.6907552083333 1.484375  50 2.18749999999999  50 3  C 50 3.8125  49.6907552083333 4.515625  49.072265625 5.109375  L 27.197265625 26.109375  C 26.5787760416667 26.703125  25.8463541666667 27  25 27  C 24.1536458333333 27  23.4212239583333 26.703125  22.802734375 26.109375  L 0.927734375 5.109375  C 0.309244791666667 4.515625  0 3.8125  0 3  C 0 2.18749999999999  0.309244791666667 1.484375  0.927734375 0.890625000000001  C 1.54622395833333 0.296874999999996  2.27864583333333 0  3.125 0  L 46.875 0  C 47.7213541666667 0  48.4537760416667 0.296874999999996  49.072265625 0.890625000000001  Z " fill-rule="nonzero" fill="#000000" stroke="none" transform="matrix(1 0 0 1 392 183 )" />
  </g>
</svg>