﻿<?xml version="1.0" encoding="utf-8"?>
<svg version="1.1" xmlns:xlink="http://www.w3.org/1999/xlink" width="359px" height="255px" xmlns="http://www.w3.org/2000/svg">
  <g transform="matrix(1 0 0 1 -163 -352 )">
    <path d="M 163 352  L 522 352  L 522 607  L 163 607  L 163 352  " fill-rule="nonzero" fill="#cccccc" stroke="none" />
    <path d="M 181 370  L 504 370  L 504 589  L 181 589  L 181 370  " fill-rule="nonzero" fill="#ffffff" stroke="none" />
    <path d="M 368.805 428.5  C 358.095 428.5  349.68 420.085  349.68 409.375  C 349.68 398.665  358.095 390.25  368.805 390.25  C 379.515 390.25  387.93 398.665  387.93 409.375  C 387.93 420.085  379.515 428.5  368.805 428.5  " fill-rule="nonzero" fill="#cccccc" stroke="none" />
    <path d="M 188 583  L 188 469.7  L 265.5 418.2  L 374 495.206128133705  L 436 449.1  L 498 495.206128133705  L 498 583  L 188 583  " fill-rule="nonzero" fill="#169bd5" stroke="none" />
  </g>
</svg>