﻿<?xml version="1.0" encoding="utf-8"?>
<svg version="1.1" xmlns:xlink="http://www.w3.org/1999/xlink" width="400px" height="217px" xmlns="http://www.w3.org/2000/svg">
  <g transform="matrix(1 0 0 1 -175 -2084 )">
    <path d="M 175 2084  L 575 2084  L 575 2301  L 175 2301  L 175 2084  " fill-rule="nonzero" fill="#cccccc" stroke="none" />
    <path d="M 190 2099  L 560 2099  L 560 2286  L 190 2286  L 190 2099  " fill-rule="nonzero" fill="#ffffff" stroke="none" />
    <path d="M 399.275 2149.1  C 390.161 2149.1  383 2141.939  383 2132.825  C 383 2123.711  390.161 2116.55  399.275 2116.55  C 408.389 2116.55  415.55 2123.711  415.55 2132.825  C 415.55 2141.939  408.389 2149.1  399.275 2149.1  " fill-rule="nonzero" fill="#cccccc" stroke="none" />
    <path d="M 196 2281  L 196 2184.2  L 285.75 2140.2  L 411.4 2223.712  L 483.2 2166.6  L 555 2223.712  L 555 2281  L 196 2281  " fill-rule="nonzero" fill="#169bd5" stroke="none" />
  </g>
</svg>