﻿<?xml version="1.0" encoding="utf-8"?>
<svg version="1.1" xmlns:xlink="http://www.w3.org/1999/xlink" width="129px" height="124px" xmlns="http://www.w3.org/2000/svg">
  <g transform="matrix(1 0 0 1 -460 -1018 )">
    <path d="M 96.75 57.5598958333333  C 98.5416666666667 58.5286458333333  99.4375 60.0086805555556  99.4375 62  C 99.4375 63.9913194444444  98.5416666666667 65.4713541666667  96.75 66.4401041666667  L 51.0625 92.2734375  C 50.22265625 92.7578125  49.3268229166667 93  48.375 93  C 47.4791666666667 93  46.5833333333333 92.7847222222222  45.6875 92.3541666666667  C 43.8958333333333 91.3315972222222  43 89.8246527777778  43 87.8333333333333  L 43 36.1666666666667  C 43 34.1753472222222  43.8958333333333 32.6684027777778  45.6875 31.6458333333333  C 47.53515625 30.6770833333333  49.3268229166667 30.7039930555556  51.0625 31.7265625  L 96.75 57.5598958333333  Z M 104.056640625 84.0390625  C 108.143880208333 77.3116319444444  110.1875 69.9652777777778  110.1875 62  C 110.1875 54.0347222222222  108.143880208333 46.6883680555556  104.056640625 39.9609375  C 99.9694010416667 33.2335069444444  94.4264322916667 27.9053819444444  87.427734375 23.9765625  C 80.4290364583333 20.0477430555556  72.7864583333333 18.0833333333333  64.5 18.0833333333333  C 56.2135416666667 18.0833333333333  48.5709635416667 20.0477430555556  41.572265625 23.9765625  C 34.5735677083333 27.9053819444444  29.0305989583333 33.2335069444444  24.943359375 39.9609375  C 20.8561197916667 46.6883680555556  18.8125 54.0347222222222  18.8125 62  C 18.8125 69.9652777777778  20.8561197916667 77.3116319444444  24.943359375 84.0390625  C 29.0305989583333 90.7664930555555  34.5735677083333 96.0946180555556  41.572265625 100.0234375  C 48.5709635416667 103.952256944444  56.2135416666667 105.916666666667  64.5 105.916666666667  C 72.7864583333333 105.916666666667  80.4290364583333 103.952256944444  87.427734375 100.0234375  C 94.4264322916667 96.0946180555556  99.9694010416667 90.7664930555555  104.056640625 84.0390625  Z M 120.349609375 30.87890625  C 126.116536458333 40.3780381944444  129 50.7517361111111  129 62  C 129 73.2482638888889  126.116536458333 83.6219618055555  120.349609375 93.12109375  C 114.582682291667 102.620225694444  106.758138020833 110.141493055556  96.8759765625 115.684895833333  C 86.9938151041667 121.228298611111  76.2018229166667 124  64.5 124  C 52.7981770833333 124  42.0061848958333 121.228298611111  32.1240234375 115.684895833333  C 22.2418619791667 110.141493055556  14.4173177083333 102.620225694444  8.650390625 93.12109375  C 2.88346354166667 83.6219618055555  0 73.2482638888889  0 62  C 0 50.7517361111111  2.88346354166667 40.3780381944444  8.650390625 30.87890625  C 14.4173177083333 21.3797743055556  22.2418619791667 13.8585069444444  32.1240234375 8.31510416666666  C 42.0061848958333 2.77170138888888  52.7981770833333 0  64.5 0  C 76.2018229166667 0  86.9938151041667 2.77170138888888  96.8759765625 8.31510416666666  C 106.758138020833 13.8585069444444  114.582682291667 21.3797743055556  120.349609375 30.87890625  Z " fill-rule="nonzero" fill="#000000" stroke="none" transform="matrix(1 0 0 1 460 1018 )" />
  </g>
</svg>