﻿<?xml version="1.0" encoding="utf-8"?>
<svg version="1.1" xmlns:xlink="http://www.w3.org/1999/xlink" width="12px" height="12px" viewBox="3 10.5  12 12" xmlns="http://www.w3.org/2000/svg">
  <path d="M 3.5 11  L 14.5 11  L 14.5 22  L 3.5 22  L 3.5 11  Z " fill-rule="nonzero" fill="#f0f0f0" stroke="none" />
  <path d="M 3.5 11  L 14.5 11  L 14.5 22  L 3.5 22  L 3.5 11  Z " stroke-width="1" stroke="#797979" fill="none" />
  <path d="M 5.57142857142857 16.5  L 8.14285714285714 19.0714285714286  " stroke-width="2.57142857142857" stroke="#797979" fill="none" />
  <path d="M 8.14285714285714 19.0714285714286  L 12.4285714285714 13.0714285714286  " stroke-width="2.57142857142857" stroke="#797979" fill="none" />
</svg>