﻿<?xml version="1.0" encoding="utf-8"?>
<svg version="1.1" xmlns:xlink="http://www.w3.org/1999/xlink" width="12px" height="12px" viewBox="397 112.5  12 12" xmlns="http://www.w3.org/2000/svg">
  <path d="M 397.5 113  L 408.5 113  L 408.5 124  L 397.5 124  L 397.5 113  Z " fill-rule="nonzero" fill="#ffffff" stroke="none" />
  <path d="M 397.5 113  L 408.5 113  L 408.5 124  L 397.5 124  L 397.5 113  Z " stroke-width="1" stroke="#797979" fill="none" />
  <path d="M 399.571428571429 118.5  L 402.142857142857 121.071428571429  " stroke-width="2.57142857142857" stroke="#797979" fill="none" />
  <path d="M 402.142857142857 121.071428571429  L 406.428571428571 115.071428571429  " stroke-width="2.57142857142857" stroke="#797979" fill="none" />
</svg>