﻿<?xml version="1.0" encoding="utf-8"?>
<svg version="1.1" xmlns:xlink="http://www.w3.org/1999/xlink" width="12px" height="12px" viewBox="77 850  12 12" xmlns="http://www.w3.org/2000/svg">
  <path d="M 77.5 850.5  L 88.5 850.5  L 88.5 861.5  L 77.5 861.5  L 77.5 850.5  Z " fill-rule="nonzero" fill="#ffffff" stroke="none" />
  <path d="M 77.5 850.5  L 88.5 850.5  L 88.5 861.5  L 77.5 861.5  L 77.5 850.5  Z " stroke-width="1" stroke="#797979" fill="none" />
  <path d="M 79.5714285714286 856  L 82.1428571428571 858.571428571429  " stroke-width="2.57142857142857" stroke="#797979" fill="none" />
  <path d="M 82.1428571428571 858.571428571429  L 86.4285714285714 852.571428571429  " stroke-width="2.57142857142857" stroke="#797979" fill="none" />
</svg>