﻿<?xml version="1.0" encoding="utf-8"?>
<svg version="1.1" xmlns:xlink="http://www.w3.org/1999/xlink" width="12px" height="12px" viewBox="501 754  12 12" xmlns="http://www.w3.org/2000/svg">
  <path d="M 501.5 754.5  L 512.5 754.5  L 512.5 765.5  L 501.5 765.5  L 501.5 754.5  Z " fill-rule="nonzero" fill="#f0f0f0" stroke="none" />
  <path d="M 501.5 754.5  L 512.5 754.5  L 512.5 765.5  L 501.5 765.5  L 501.5 754.5  Z " stroke-width="1" stroke="#797979" fill="none" />
  <path d="M 503.571428571429 760  L 506.142857142857 762.571428571429  " stroke-width="2.57142857142857" stroke="#797979" fill="none" />
  <path d="M 506.142857142857 762.571428571429  L 510.428571428571 756.571428571429  " stroke-width="2.57142857142857" stroke="#797979" fill="none" />
</svg>