﻿<?xml version="1.0" encoding="utf-8"?>
<svg version="1.1" xmlns:xlink="http://www.w3.org/1999/xlink" width="12px" height="12px" viewBox="569 850  12 12" xmlns="http://www.w3.org/2000/svg">
  <path d="M 569.5 850.5  L 580.5 850.5  L 580.5 861.5  L 569.5 861.5  L 569.5 850.5  Z " fill-rule="nonzero" fill="#f0f0f0" stroke="none" />
  <path d="M 569.5 850.5  L 580.5 850.5  L 580.5 861.5  L 569.5 861.5  L 569.5 850.5  Z " stroke-width="1" stroke="#797979" fill="none" />
  <path d="M 571.571428571429 856  L 574.142857142857 858.571428571429  " stroke-width="2.57142857142857" stroke="#797979" fill="none" />
  <path d="M 574.142857142857 858.571428571429  L 578.428571428571 852.571428571429  " stroke-width="2.57142857142857" stroke="#797979" fill="none" />
</svg>