﻿<?xml version="1.0" encoding="utf-8"?>
<svg version="1.1" xmlns:xlink="http://www.w3.org/1999/xlink" width="454px" height="7px" xmlns="http://www.w3.org/2000/svg">
  <g transform="matrix(1 0 0 1 -116.5 -448.5 )">
    <path d="M 118 451.5  L 568 451.5  " stroke-width="3" stroke-dasharray="3,3" stroke="#555555" fill="none" />
  </g>
</svg>