﻿<?xml version="1.0" encoding="utf-8"?>
<svg version="1.1" xmlns:xlink="http://www.w3.org/1999/xlink" width="33px" height="29px" xmlns="http://www.w3.org/2000/svg">
  <g transform="matrix(1 0 0 1 -305 -3570 )">
    <path d="M 31.1584821428571 11.1427556818182  C 31.8582589285714 10.6072443181818  32.4720982142857 10.0099431818182  33 9.35085227272727  L 33 25.7045454545455  C 33 26.6107954545455  32.7114955357143 27.3866003787879  32.1344866071429 28.0319602272727  C 31.5574776785714 28.6773200757576  30.8638392857143 29  30.0535714285714 29  L 2.94642857142857 29  C 2.13616071428571 29  1.44252232142857 28.6773200757576  0.865513392857143 28.0319602272727  C 0.288504464285714 27.3866003787879  0 26.6107954545455  0 25.7045454545455  L 0 9.35085227272727  C 0.540178571428572 10.0236742424242  1.16015625 10.6209753787879  1.85993303571429 11.1427556818182  C 6.30412946428572 14.5205965909091  9.35491071428571 16.8892045454545  11.0122767857143 18.2485795454545  C 11.7120535714286 18.8252840909091  12.2798549107143 19.2749763257576  12.7156808035714 19.59765625  C 13.1515066964286 19.9203361742424  13.7315848214286 20.2498816287879  14.4559151785714 20.5862926136364  C 15.1802455357143 20.9227035984848  15.85546875 21.0909090909091  16.4815848214286 21.0909090909091  L 16.5 21.0909090909091  L 16.5184151785714 21.0909090909091  C 17.14453125 21.0909090909091  17.8197544642857 20.9227035984848  18.5440848214286 20.5862926136364  C 19.2684151785714 20.2498816287879  19.8484933035714 19.9203361742424  20.2843191964286 19.59765625  C 20.7201450892857 19.2749763257576  21.2879464285714 18.8252840909091  21.9877232142857 18.2485795454545  C 24.0747767857143 16.5596590909091  27.1316964285714 14.1910511363636  31.1584821428571 11.1427556818182  Z M 32.1252790178571 0.968039772727271  C 32.7084263392857 1.61339962121212  33 2.38920454545455  33 3.29545454545455  C 33 4.38020833333333  32.69921875 5.41690340909091  32.09765625 6.40553977272727  C 31.49609375 7.39417613636364  30.7472098214286 8.23863636363636  29.8510044642857 8.93892045454546  C 25.2349330357143 12.5227272727273  22.3621651785714 14.7540246212121  21.2327008928571 15.6328125  C 21.1099330357143 15.7289299242424  20.8490513392857 15.9383285984848  20.4500558035714 16.2610085227273  C 20.0510602678571 16.5836884469697  19.7195870535714 16.8445785984848  19.4556361607143 17.0436789772727  C 19.1916852678571 17.2427793560606  18.8724888392857 17.4659090909091  18.498046875 17.7130681818182  C 18.1236049107143 17.9602272727273  17.7706473214286 18.1455965909091  17.4391741071429 18.2691761363636  C 17.1077008928571 18.3927556818182  16.80078125 18.4545454545455  16.5184151785714 18.4545454545455  L 16.5 18.4545454545455  L 16.4815848214286 18.4545454545455  C 16.19921875 18.4545454545455  15.8922991071429 18.3927556818182  15.5608258928571 18.2691761363636  C 15.2293526785714 18.1455965909091  14.8763950892857 17.9602272727273  14.501953125 17.7130681818182  C 14.1275111607143 17.4659090909091  13.8083147321429 17.2427793560606  13.5443638392857 17.0436789772727  C 13.2804129464286 16.8445785984848  12.9489397321429 16.5836884469697  12.5499441964286 16.2610085227273  C 12.1509486607143 15.9383285984848  11.8900669642857 15.7289299242424  11.7672991071429 15.6328125  C 10.6501116071429 14.7540246212121  9.04185267857143 13.5010653409091  6.94252232142857 11.8739346590909  C 4.84319196428571 10.2468039772727  3.58482142857143 9.2684659090909  3.16741071428571 8.93892045454546  C 2.40625 8.3622159090909  1.68805803571429 7.56924715909091  1.01283482142857 6.56001420454545  C 0.337611607142857 5.55078125  0 4.61363636363636  0 3.74857954545455  C 0 2.67755681818182  0.254743303571429 1.78503787878787  0.764229910714286 1.07102272727273  C 1.27371651785714 0.357007575757573  2.00111607142857 0  2.94642857142857 0  L 30.0535714285714 0  C 30.8515625 0  31.5421316964286 0.322679924242421  32.1252790178571 0.968039772727271  Z " fill-rule="nonzero" fill="#000000" stroke="none" transform="matrix(1 0 0 1 305 3570 )" />
  </g>
</svg>