﻿<?xml version="1.0" encoding="utf-8"?>
<svg version="1.1" xmlns:xlink="http://www.w3.org/1999/xlink" width="12px" height="12px" viewBox="272 360.5  12 12" xmlns="http://www.w3.org/2000/svg">
  <path d="M 272.5 361  L 283.5 361  L 283.5 372  L 272.5 372  L 272.5 361  Z " fill-rule="nonzero" fill="#f0f0f0" stroke="none" />
  <path d="M 272.5 361  L 283.5 361  L 283.5 372  L 272.5 372  L 272.5 361  Z " stroke-width="1" stroke="#797979" fill="none" />
  <path d="M 274.571428571429 366.5  L 277.142857142857 369.071428571429  " stroke-width="2.57142857142857" stroke="#797979" fill="none" />
  <path d="M 277.142857142857 369.071428571429  L 281.428571428571 363.071428571429  " stroke-width="2.57142857142857" stroke="#797979" fill="none" />
</svg>