﻿<?xml version="1.0" encoding="utf-8"?>
<svg version="1.1" xmlns:xlink="http://www.w3.org/1999/xlink" width="12px" height="12px" viewBox="798 418.5  12 12" xmlns="http://www.w3.org/2000/svg">
  <path d="M 798.5 419  L 809.5 419  L 809.5 430  L 798.5 430  L 798.5 419  Z " fill-rule="nonzero" fill="#ffffff" stroke="none" />
  <path d="M 798.5 419  L 809.5 419  L 809.5 430  L 798.5 430  L 798.5 419  Z " stroke-width="1" stroke="#797979" fill="none" />
  <path d="M 800.571428571429 424.5  L 803.142857142857 427.071428571429  " stroke-width="2.57142857142857" stroke="#797979" fill="none" />
  <path d="M 803.142857142857 427.071428571429  L 807.428571428571 421.071428571429  " stroke-width="2.57142857142857" stroke="#797979" fill="none" />
</svg>