﻿<?xml version="1.0" encoding="utf-8"?>
<svg version="1.1" xmlns:xlink="http://www.w3.org/1999/xlink" width="12px" height="12px" viewBox="447 478.5  12 12" xmlns="http://www.w3.org/2000/svg">
  <path d="M 447.5 479  L 458.5 479  L 458.5 490  L 447.5 490  L 447.5 479  Z " fill-rule="nonzero" fill="#ffffff" stroke="none" />
  <path d="M 447.5 479  L 458.5 479  L 458.5 490  L 447.5 490  L 447.5 479  Z " stroke-width="1" stroke="#797979" fill="none" />
  <path d="M 449.571428571429 484.5  L 452.142857142857 487.071428571429  " stroke-width="2.57142857142857" stroke="#797979" fill="none" />
  <path d="M 452.142857142857 487.071428571429  L 456.428571428571 481.071428571429  " stroke-width="2.57142857142857" stroke="#797979" fill="none" />
</svg>