﻿<?xml version="1.0" encoding="utf-8"?>
<svg version="1.1" xmlns:xlink="http://www.w3.org/1999/xlink" width="12px" height="12px" viewBox="3 185.5  12 12" xmlns="http://www.w3.org/2000/svg">
  <path d="M 3.5 186  L 14.5 186  L 14.5 197  L 3.5 197  L 3.5 186  Z " fill-rule="nonzero" fill="#f0f0f0" stroke="none" />
  <path d="M 3.5 186  L 14.5 186  L 14.5 197  L 3.5 197  L 3.5 186  Z " stroke-width="1" stroke="#797979" fill="none" />
  <path d="M 5.57142857142857 191.5  L 8.14285714285714 194.071428571429  " stroke-width="2.57142857142857" stroke="#797979" fill="none" />
  <path d="M 8.14285714285714 194.071428571429  L 12.4285714285714 188.071428571429  " stroke-width="2.57142857142857" stroke="#797979" fill="none" />
</svg>