﻿<?xml version="1.0" encoding="utf-8"?>
<svg version="1.1" xmlns:xlink="http://www.w3.org/1999/xlink" width="20px" height="20px" xmlns="http://www.w3.org/2000/svg">
  <g transform="matrix(1 0 0 1 -113 -43 )">
    <path d="M 19.62890625 0.659722222222223  C 19.8763020833333 1.09953703703703  20 1.62037037037037  20 2.22222222222222  C 20 2.82407407407407  19.8763020833333 3.3449074074074  19.62890625 3.78472222222222  L 10.87890625 19.3402777777778  C 10.6315104166667 19.7800925925926  10.3385416666667 20  10 20  C 9.66145833333334 20  9.36848958333334 19.7800925925926  9.12109375 19.3402777777778  L 0.37109375 3.78472222222222  C 0.123697916666667 3.3449074074074  0 2.82407407407407  0 2.22222222222222  C 0 1.62037037037037  0.123697916666667 1.09953703703703  0.37109375 0.659722222222223  C 0.618489583333333 0.219907407407405  0.911458333333333 0  1.25 0  L 18.75 0  C 19.0885416666667 0  19.3815104166667 0.219907407407405  19.62890625 0.659722222222223  Z " fill-rule="nonzero" fill="#000000" stroke="none" transform="matrix(1 0 0 1 113 43 )" />
  </g>
</svg>