﻿<?xml version="1.0" encoding="utf-8"?>
<svg version="1.1" xmlns:xlink="http://www.w3.org/1999/xlink" width="12px" height="12px" viewBox="123 112.5  12 12" xmlns="http://www.w3.org/2000/svg">
  <path d="M 123.5 113  L 134.5 113  L 134.5 124  L 123.5 124  L 123.5 113  Z " fill-rule="nonzero" fill="#f0f0f0" stroke="none" />
  <path d="M 123.5 113  L 134.5 113  L 134.5 124  L 123.5 124  L 123.5 113  Z " stroke-width="1" stroke="#797979" fill="none" />
  <path d="M 125.571428571429 118.5  L 128.142857142857 121.071428571429  " stroke-width="2.57142857142857" stroke="#797979" fill="none" />
  <path d="M 128.142857142857 121.071428571429  L 132.428571428571 115.071428571429  " stroke-width="2.57142857142857" stroke="#797979" fill="none" />
</svg>