﻿<?xml version="1.0" encoding="utf-8"?>
<svg version="1.1" xmlns:xlink="http://www.w3.org/1999/xlink" width="12px" height="12px" viewBox="123 146.5  12 12" xmlns="http://www.w3.org/2000/svg">
  <path d="M 123.5 147  L 134.5 147  L 134.5 158  L 123.5 158  L 123.5 147  Z " fill-rule="nonzero" fill="#ffffff" stroke="none" />
  <path d="M 123.5 147  L 134.5 147  L 134.5 158  L 123.5 158  L 123.5 147  Z " stroke-width="1" stroke="#797979" fill="none" />
  <path d="M 125.571428571429 152.5  L 128.142857142857 155.071428571429  " stroke-width="2.57142857142857" stroke="#797979" fill="none" />
  <path d="M 128.142857142857 155.071428571429  L 132.428571428571 149.071428571429  " stroke-width="2.57142857142857" stroke="#797979" fill="none" />
</svg>