﻿<?xml version="1.0" encoding="utf-8"?>
<svg version="1.1" xmlns:xlink="http://www.w3.org/1999/xlink" width="12px" height="12px" viewBox="211 146.5  12 12" xmlns="http://www.w3.org/2000/svg">
  <path d="M 211.5 147  L 222.5 147  L 222.5 158  L 211.5 158  L 211.5 147  Z " fill-rule="nonzero" fill="#ffffff" stroke="none" />
  <path d="M 211.5 147  L 222.5 147  L 222.5 158  L 211.5 158  L 211.5 147  Z " stroke-width="1" stroke="#797979" fill="none" />
  <path d="M 213.571428571429 152.5  L 216.142857142857 155.071428571429  " stroke-width="2.57142857142857" stroke="#797979" fill="none" />
  <path d="M 216.142857142857 155.071428571429  L 220.428571428571 149.071428571429  " stroke-width="2.57142857142857" stroke="#797979" fill="none" />
</svg>