﻿<?xml version="1.0" encoding="utf-8"?>
<svg version="1.1" xmlns:xlink="http://www.w3.org/1999/xlink" width="12px" height="12px" viewBox="74 651.5  12 12" xmlns="http://www.w3.org/2000/svg">
  <path d="M 74.5 652  L 85.5 652  L 85.5 663  L 74.5 663  L 74.5 652  Z " fill-rule="nonzero" fill="#ffffff" stroke="none" />
  <path d="M 74.5 652  L 85.5 652  L 85.5 663  L 74.5 663  L 74.5 652  Z " stroke-width="1" stroke="#797979" fill="none" />
  <path d="M 76.5714285714286 657.5  L 79.1428571428571 660.071428571429  " stroke-width="2.57142857142857" stroke="#797979" fill="none" />
  <path d="M 79.1428571428571 660.071428571429  L 83.4285714285714 654.071428571429  " stroke-width="2.57142857142857" stroke="#797979" fill="none" />
</svg>