﻿<?xml version="1.0" encoding="utf-8"?>
<svg version="1.1" xmlns:xlink="http://www.w3.org/1999/xlink" width="12px" height="12px" viewBox="606 754  12 12" xmlns="http://www.w3.org/2000/svg">
  <path d="M 606.5 754.5  L 617.5 754.5  L 617.5 765.5  L 606.5 765.5  L 606.5 754.5  Z " fill-rule="nonzero" fill="#ffffff" stroke="none" />
  <path d="M 606.5 754.5  L 617.5 754.5  L 617.5 765.5  L 606.5 765.5  L 606.5 754.5  Z " stroke-width="1" stroke="#797979" fill="none" />
  <path d="M 608.571428571429 760  L 611.142857142857 762.571428571429  " stroke-width="2.57142857142857" stroke="#797979" fill="none" />
  <path d="M 611.142857142857 762.571428571429  L 615.428571428571 756.571428571429  " stroke-width="2.57142857142857" stroke="#797979" fill="none" />
</svg>