﻿<?xml version="1.0" encoding="utf-8"?>
<svg version="1.1" xmlns:xlink="http://www.w3.org/1999/xlink" width="12px" height="12px" viewBox="189 1129  12 12" xmlns="http://www.w3.org/2000/svg">
  <path d="M 189.5 1129.5  L 200.5 1129.5  L 200.5 1140.5  L 189.5 1140.5  L 189.5 1129.5  Z " fill-rule="nonzero" fill="#ffffff" stroke="none" />
  <path d="M 189.5 1129.5  L 200.5 1129.5  L 200.5 1140.5  L 189.5 1140.5  L 189.5 1129.5  Z " stroke-width="1" stroke="#797979" fill="none" />
  <path d="M 191.571428571429 1135  L 194.142857142857 1137.57142857143  " stroke-width="2.57142857142857" stroke="#797979" fill="none" />
  <path d="M 194.142857142857 1137.57142857143  L 198.428571428571 1131.57142857143  " stroke-width="2.57142857142857" stroke="#797979" fill="none" />
</svg>