﻿<?xml version="1.0" encoding="utf-8"?>
<svg version="1.1" xmlns:xlink="http://www.w3.org/1999/xlink" width="12px" height="12px" viewBox="189 1218  12 12" xmlns="http://www.w3.org/2000/svg">
  <path d="M 189.5 1218.5  L 200.5 1218.5  L 200.5 1229.5  L 189.5 1229.5  L 189.5 1218.5  Z " fill-rule="nonzero" fill="#f0f0f0" stroke="none" />
  <path d="M 189.5 1218.5  L 200.5 1218.5  L 200.5 1229.5  L 189.5 1229.5  L 189.5 1218.5  Z " stroke-width="1" stroke="#797979" fill="none" />
  <path d="M 191.571428571429 1224  L 194.142857142857 1226.57142857143  " stroke-width="2.57142857142857" stroke="#797979" fill="none" />
  <path d="M 194.142857142857 1226.57142857143  L 198.428571428571 1220.57142857143  " stroke-width="2.57142857142857" stroke="#797979" fill="none" />
</svg>