﻿<?xml version="1.0" encoding="utf-8"?>
<svg version="1.1" xmlns:xlink="http://www.w3.org/1999/xlink" width="12px" height="12px" viewBox="640 1321  12 12" xmlns="http://www.w3.org/2000/svg">
  <path d="M 640.5 1321.5  L 651.5 1321.5  L 651.5 1332.5  L 640.5 1332.5  L 640.5 1321.5  Z " fill-rule="nonzero" fill="#f0f0f0" stroke="none" />
  <path d="M 640.5 1321.5  L 651.5 1321.5  L 651.5 1332.5  L 640.5 1332.5  L 640.5 1321.5  Z " stroke-width="1" stroke="#797979" fill="none" />
  <path d="M 642.571428571429 1327  L 645.142857142857 1329.57142857143  " stroke-width="2.57142857142857" stroke="#797979" fill="none" />
  <path d="M 645.142857142857 1329.57142857143  L 649.428571428571 1323.57142857143  " stroke-width="2.57142857142857" stroke="#797979" fill="none" />
</svg>