﻿<?xml version="1.0" encoding="utf-8"?>
<svg version="1.1" xmlns:xlink="http://www.w3.org/1999/xlink" width="12px" height="12px" viewBox="86 1509  12 12" xmlns="http://www.w3.org/2000/svg">
  <path d="M 86.5 1509.5  L 97.5 1509.5  L 97.5 1520.5  L 86.5 1520.5  L 86.5 1509.5  Z " fill-rule="nonzero" fill="#ffffff" stroke="none" />
  <path d="M 86.5 1509.5  L 97.5 1509.5  L 97.5 1520.5  L 86.5 1520.5  L 86.5 1509.5  Z " stroke-width="1" stroke="#797979" fill="none" />
  <path d="M 88.5714285714286 1515  L 91.1428571428571 1517.57142857143  " stroke-width="2.57142857142857" stroke="#797979" fill="none" />
  <path d="M 91.1428571428571 1517.57142857143  L 95.4285714285714 1511.57142857143  " stroke-width="2.57142857142857" stroke="#797979" fill="none" />
</svg>