﻿<?xml version="1.0" encoding="utf-8"?>
<svg version="1.1" xmlns:xlink="http://www.w3.org/1999/xlink" width="12px" height="12px" viewBox="3 218.5  12 12" xmlns="http://www.w3.org/2000/svg">
  <path d="M 3.5 219  L 14.5 219  L 14.5 230  L 3.5 230  L 3.5 219  Z " fill-rule="nonzero" fill="#ffffff" stroke="none" />
  <path d="M 3.5 219  L 14.5 219  L 14.5 230  L 3.5 230  L 3.5 219  Z " stroke-width="1" stroke="#797979" fill="none" />
  <path d="M 5.57142857142857 224.5  L 8.14285714285714 227.071428571429  " stroke-width="2.57142857142857" stroke="#797979" fill="none" />
  <path d="M 8.14285714285714 227.071428571429  L 12.4285714285714 221.071428571429  " stroke-width="2.57142857142857" stroke="#797979" fill="none" />
</svg>