﻿<?xml version="1.0" encoding="utf-8"?>
<svg version="1.1" xmlns:xlink="http://www.w3.org/1999/xlink" width="12px" height="12px" viewBox="283 755  12 12" xmlns="http://www.w3.org/2000/svg">
  <path d="M 283.5 755.5  L 294.5 755.5  L 294.5 766.5  L 283.5 766.5  L 283.5 755.5  Z " fill-rule="nonzero" fill="#f0f0f0" stroke="none" />
  <path d="M 283.5 755.5  L 294.5 755.5  L 294.5 766.5  L 283.5 766.5  L 283.5 755.5  Z " stroke-width="1" stroke="#797979" fill="none" />
  <path d="M 285.571428571429 761  L 288.142857142857 763.571428571429  " stroke-width="2.57142857142857" stroke="#797979" fill="none" />
  <path d="M 288.142857142857 763.571428571429  L 292.428571428571 757.571428571429  " stroke-width="2.57142857142857" stroke="#797979" fill="none" />
</svg>