﻿<?xml version="1.0" encoding="utf-8"?>
<svg version="1.1" xmlns:xlink="http://www.w3.org/1999/xlink" width="12px" height="12px" viewBox="289 1123  12 12" xmlns="http://www.w3.org/2000/svg">
  <path d="M 289.5 1123.5  L 300.5 1123.5  L 300.5 1134.5  L 289.5 1134.5  L 289.5 1123.5  Z " fill-rule="nonzero" fill="#f0f0f0" stroke="none" />
  <path d="M 289.5 1123.5  L 300.5 1123.5  L 300.5 1134.5  L 289.5 1134.5  L 289.5 1123.5  Z " stroke-width="1" stroke="#797979" fill="none" />
  <path d="M 291.571428571429 1129  L 294.142857142857 1131.57142857143  " stroke-width="2.57142857142857" stroke="#797979" fill="none" />
  <path d="M 294.142857142857 1131.57142857143  L 298.428571428571 1125.57142857143  " stroke-width="2.57142857142857" stroke="#797979" fill="none" />
</svg>