﻿<?xml version="1.0" encoding="utf-8"?>
<svg version="1.1" xmlns:xlink="http://www.w3.org/1999/xlink" width="12px" height="12px" viewBox="311 1414  12 12" xmlns="http://www.w3.org/2000/svg">
  <path d="M 311.5 1414.5  L 322.5 1414.5  L 322.5 1425.5  L 311.5 1425.5  L 311.5 1414.5  Z " fill-rule="nonzero" fill="#f0f0f0" stroke="none" />
  <path d="M 311.5 1414.5  L 322.5 1414.5  L 322.5 1425.5  L 311.5 1425.5  L 311.5 1414.5  Z " stroke-width="1" stroke="#797979" fill="none" />
  <path d="M 313.571428571429 1420  L 316.142857142857 1422.57142857143  " stroke-width="2.57142857142857" stroke="#797979" fill="none" />
  <path d="M 316.142857142857 1422.57142857143  L 320.428571428571 1416.57142857143  " stroke-width="2.57142857142857" stroke="#797979" fill="none" />
</svg>