﻿<?xml version="1.0" encoding="utf-8"?>
<svg version="1.1" xmlns:xlink="http://www.w3.org/1999/xlink" width="12px" height="12px" viewBox="377 1218  12 12" xmlns="http://www.w3.org/2000/svg">
  <path d="M 377.5 1218.5  L 388.5 1218.5  L 388.5 1229.5  L 377.5 1229.5  L 377.5 1218.5  Z " fill-rule="nonzero" fill="#ffffff" stroke="none" />
  <path d="M 377.5 1218.5  L 388.5 1218.5  L 388.5 1229.5  L 377.5 1229.5  L 377.5 1218.5  Z " stroke-width="1" stroke="#797979" fill="none" />
  <path d="M 379.571428571429 1224  L 382.142857142857 1226.57142857143  " stroke-width="2.57142857142857" stroke="#797979" fill="none" />
  <path d="M 382.142857142857 1226.57142857143  L 386.428571428571 1220.57142857143  " stroke-width="2.57142857142857" stroke="#797979" fill="none" />
</svg>