﻿<?xml version="1.0" encoding="utf-8"?>
<svg version="1.1" xmlns:xlink="http://www.w3.org/1999/xlink" width="12px" height="12px" viewBox="427 1509  12 12" xmlns="http://www.w3.org/2000/svg">
  <path d="M 427.5 1509.5  L 438.5 1509.5  L 438.5 1520.5  L 427.5 1520.5  L 427.5 1509.5  Z " fill-rule="nonzero" fill="#f0f0f0" stroke="none" />
  <path d="M 427.5 1509.5  L 438.5 1509.5  L 438.5 1520.5  L 427.5 1520.5  L 427.5 1509.5  Z " stroke-width="1" stroke="#797979" fill="none" />
  <path d="M 429.571428571429 1515  L 432.142857142857 1517.57142857143  " stroke-width="2.57142857142857" stroke="#797979" fill="none" />
  <path d="M 432.142857142857 1517.57142857143  L 436.428571428571 1511.57142857143  " stroke-width="2.57142857142857" stroke="#797979" fill="none" />
</svg>