﻿<?xml version="1.0" encoding="utf-8"?>
<svg version="1.1" xmlns:xlink="http://www.w3.org/1999/xlink" width="18px" height="18px" viewBox="445 477.5  18 18" xmlns="http://www.w3.org/2000/svg">
  <path d="M 445.5 478  L 462.5 478  L 462.5 495  L 445.5 495  L 445.5 478  Z " fill-rule="nonzero" fill="#ffffff" stroke="none" />
  <path d="M 445.5 478  L 462.5 478  L 462.5 495  L 445.5 495  L 445.5 478  Z " stroke-width="1" stroke="#797979" fill="none" />
</svg>