﻿<?xml version="1.0" encoding="utf-8"?>
<svg version="1.1" xmlns:xlink="http://www.w3.org/1999/xlink" width="18px" height="18px" viewBox="669 477.5  18 18" xmlns="http://www.w3.org/2000/svg">
  <path d="M 669.5 478  L 686.5 478  L 686.5 495  L 669.5 495  L 669.5 478  Z " fill-rule="nonzero" fill="#ffffff" stroke="none" />
  <path d="M 669.5 478  L 686.5 478  L 686.5 495  L 669.5 495  L 669.5 478  Z " stroke-width="1" stroke="#797979" fill="none" />
  <path d="M 672.857142857143 486.5  L 676.714285714286 490.357142857143  " stroke-width="3.85714285714286" stroke="#797979" fill="none" />
  <path d="M 676.714285714286 490.357142857143  L 683.142857142857 481.357142857143  " stroke-width="3.85714285714286" stroke="#797979" fill="none" />
</svg>