﻿<?xml version="1.0" encoding="utf-8"?>
<svg version="1.1" xmlns:xlink="http://www.w3.org/1999/xlink" width="12px" height="12px" viewBox="74 665  12 12" xmlns="http://www.w3.org/2000/svg">
  <path d="M 74.5 665.5  L 85.5 665.5  L 85.5 676.5  L 74.5 676.5  L 74.5 665.5  Z " fill-rule="nonzero" fill="#f0f0f0" stroke="none" />
  <path d="M 74.5 665.5  L 85.5 665.5  L 85.5 676.5  L 74.5 676.5  L 74.5 665.5  Z " stroke-width="1" stroke="#797979" fill="none" />
  <path d="M 76.5714285714286 671  L 79.1428571428571 673.571428571429  " stroke-width="2.57142857142857" stroke="#797979" fill="none" />
  <path d="M 79.1428571428571 673.571428571429  L 83.4285714285714 667.571428571429  " stroke-width="2.57142857142857" stroke="#797979" fill="none" />
</svg>