﻿<?xml version="1.0" encoding="utf-8"?>
<svg version="1.1" xmlns:xlink="http://www.w3.org/1999/xlink" width="12px" height="12px" viewBox="656 665  12 12" xmlns="http://www.w3.org/2000/svg">
  <path d="M 656.5 665.5  L 667.5 665.5  L 667.5 676.5  L 656.5 676.5  L 656.5 665.5  Z " fill-rule="nonzero" fill="#ffffff" stroke="none" />
  <path d="M 656.5 665.5  L 667.5 665.5  L 667.5 676.5  L 656.5 676.5  L 656.5 665.5  Z " stroke-width="1" stroke="#797979" fill="none" />
  <path d="M 658.571428571429 671  L 661.142857142857 673.571428571429  " stroke-width="2.57142857142857" stroke="#797979" fill="none" />
  <path d="M 661.142857142857 673.571428571429  L 665.428571428571 667.571428571429  " stroke-width="2.57142857142857" stroke="#797979" fill="none" />
</svg>