﻿<?xml version="1.0" encoding="utf-8"?>
<svg version="1.1" xmlns:xlink="http://www.w3.org/1999/xlink" width="17px" height="17px" viewBox="92 1514.5  17 17" xmlns="http://www.w3.org/2000/svg">
  <path d="M 100.5 1514.5  C 105.26 1514.5  109 1518.24  109 1523  C 109 1527.76  105.26 1531.5  100.5 1531.5  C 95.74 1531.5  92 1527.76  92 1523  C 92 1518.24  95.74 1514.5  100.5 1514.5  Z " fill-rule="nonzero" fill="#f0f0f0" stroke="none" />
  <path d="M 100.5 1515  C 104.98 1515  108.5 1518.52  108.5 1523  C 108.5 1527.48  104.98 1531  100.5 1531  C 96.02 1531  92.5 1527.48  92.5 1523  C 92.5 1518.52  96.02 1515  100.5 1515  Z " stroke-width="1" stroke="#797979" fill="none" />
</svg>