﻿<?xml version="1.0" encoding="utf-8"?>
<svg version="1.1" xmlns:xlink="http://www.w3.org/1999/xlink" width="12px" height="12px" viewBox="222 622.5  12 12" xmlns="http://www.w3.org/2000/svg">
  <path d="M 222.5 623  L 233.5 623  L 233.5 634  L 222.5 634  L 222.5 623  Z " fill-rule="nonzero" fill="#f0f0f0" stroke="none" />
  <path d="M 222.5 623  L 233.5 623  L 233.5 634  L 222.5 634  L 222.5 623  Z " stroke-width="1" stroke="#797979" fill="none" />
  <path d="M 224.571428571429 628.5  L 227.142857142857 631.071428571429  " stroke-width="2.57142857142857" stroke="#797979" fill="none" />
  <path d="M 227.142857142857 631.071428571429  L 231.428571428571 625.071428571429  " stroke-width="2.57142857142857" stroke="#797979" fill="none" />
</svg>