﻿<?xml version="1.0" encoding="utf-8"?>
<svg version="1.1" xmlns:xlink="http://www.w3.org/1999/xlink" width="12px" height="12px" viewBox="397 504.5  12 12" xmlns="http://www.w3.org/2000/svg">
  <path d="M 397.5 505  L 408.5 505  L 408.5 516  L 397.5 516  L 397.5 505  Z " fill-rule="nonzero" fill="#ffffff" stroke="none" />
  <path d="M 397.5 505  L 408.5 505  L 408.5 516  L 397.5 516  L 397.5 505  Z " stroke-width="1" stroke="#797979" fill="none" />
  <path d="M 399.571428571429 510.5  L 402.142857142857 513.071428571429  " stroke-width="2.57142857142857" stroke="#797979" fill="none" />
  <path d="M 402.142857142857 513.071428571429  L 406.428571428571 507.071428571429  " stroke-width="2.57142857142857" stroke="#797979" fill="none" />
</svg>