﻿<?xml version="1.0" encoding="utf-8"?>
<svg version="1.1" xmlns:xlink="http://www.w3.org/1999/xlink" width="12px" height="12px" viewBox="397 504.5  12 12" xmlns="http://www.w3.org/2000/svg">
  <path d="M 397.5 505  L 408.5 505  L 408.5 516  L 397.5 516  L 397.5 505  Z " fill-rule="nonzero" fill="#f0f0f0" stroke="none" />
  <path d="M 397.5 505  L 408.5 505  L 408.5 516  L 397.5 516  L 397.5 505  Z " stroke-width="1" stroke="#797979" fill="none" />
</svg>