﻿<?xml version="1.0" encoding="utf-8"?>
<svg version="1.1" xmlns:xlink="http://www.w3.org/1999/xlink" width="20px" height="20px" viewBox="314 218  20 20" xmlns="http://www.w3.org/2000/svg">
  <path d="M 314.5 218.5  L 333.5 218.5  L 333.5 237.5  L 314.5 237.5  L 314.5 218.5  Z " fill-rule="nonzero" fill="#ffffff" stroke="none" />
  <path d="M 314.5 218.5  L 333.5 218.5  L 333.5 237.5  L 314.5 237.5  L 314.5 218.5  Z " stroke-width="1" stroke="#797979" fill="none" />
</svg>