﻿<?xml version="1.0" encoding="utf-8"?>
<svg version="1.1" xmlns:xlink="http://www.w3.org/1999/xlink" width="20px" height="20px" viewBox="592 420  20 20" xmlns="http://www.w3.org/2000/svg">
  <path d="M 592.5 420.5  L 611.5 420.5  L 611.5 439.5  L 592.5 439.5  L 592.5 420.5  Z " fill-rule="nonzero" fill="#f0f0f0" stroke="none" />
  <path d="M 592.5 420.5  L 611.5 420.5  L 611.5 439.5  L 592.5 439.5  L 592.5 420.5  Z " stroke-width="1" stroke="#797979" fill="none" />
</svg>