﻿<?xml version="1.0" encoding="utf-8"?>
<svg version="1.1" xmlns:xlink="http://www.w3.org/1999/xlink" width="20px" height="20px" viewBox="453 327  20 20" xmlns="http://www.w3.org/2000/svg">
  <path d="M 453.5 327.5  L 472.5 327.5  L 472.5 346.5  L 453.5 346.5  L 453.5 327.5  Z " fill-rule="nonzero" fill="#f0f0f0" stroke="none" />
  <path d="M 453.5 327.5  L 472.5 327.5  L 472.5 346.5  L 453.5 346.5  L 453.5 327.5  Z " stroke-width="1" stroke="#797979" fill="none" />
  <path d="M 457.285714285714 337  L 461.571428571429 341.285714285714  " stroke-width="4.28571428571429" stroke="#797979" fill="none" />
  <path d="M 461.571428571429 341.285714285714  L 468.714285714286 331.285714285714  " stroke-width="4.28571428571429" stroke="#797979" fill="none" />
</svg>