﻿<?xml version="1.0" encoding="utf-8"?>
<svg version="1.1" xmlns:xlink="http://www.w3.org/1999/xlink" width="20px" height="20px" viewBox="36 132  20 20" xmlns="http://www.w3.org/2000/svg">
  <path d="M 36.5 132.5  L 55.5 132.5  L 55.5 151.5  L 36.5 151.5  L 36.5 132.5  Z " fill-rule="nonzero" fill="#ffffff" stroke="none" />
  <path d="M 36.5 132.5  L 55.5 132.5  L 55.5 151.5  L 36.5 151.5  L 36.5 132.5  Z " stroke-width="1" stroke="#797979" fill="none" />
  <path d="M 40.2857142857143 142  L 44.5714285714286 146.285714285714  " stroke-width="4.28571428571429" stroke="#797979" fill="none" />
  <path d="M 44.5714285714286 146.285714285714  L 51.7142857142857 136.285714285714  " stroke-width="4.28571428571429" stroke="#797979" fill="none" />
</svg>