﻿<?xml version="1.0" encoding="utf-8"?>
<svg version="1.1" xmlns:xlink="http://www.w3.org/1999/xlink" width="20px" height="20px" viewBox="175 132  20 20" xmlns="http://www.w3.org/2000/svg">
  <path d="M 175.5 132.5  L 194.5 132.5  L 194.5 151.5  L 175.5 151.5  L 175.5 132.5  Z " fill-rule="nonzero" fill="#ffffff" stroke="none" />
  <path d="M 175.5 132.5  L 194.5 132.5  L 194.5 151.5  L 175.5 151.5  L 175.5 132.5  Z " stroke-width="1" stroke="#797979" fill="none" />
  <path d="M 179.285714285714 142  L 183.571428571429 146.285714285714  " stroke-width="4.28571428571429" stroke="#797979" fill="none" />
  <path d="M 183.571428571429 146.285714285714  L 190.714285714286 136.285714285714  " stroke-width="4.28571428571429" stroke="#797979" fill="none" />
</svg>